Project step 4
…
case_ranking_by_months <- cases_month |>
  group_by(month, region) |>
  filter(measles_total >= 0) |>
  summarise(avg_measles = mean(measles_total, na.rm = TRUE), .groups = "drop") |>
  mutate(month = factor(month.abb[month], levels = month.abb),
         region = recode(region, "AFR" = "Africa", 
                         "AMR" = "Americas", 
                         "EMR" = "Eastern Mediterranean", 
                         "EUR" = "Europe", 
                         "SEAR" = "South-East Asia", 
                         "WPR" = "Western Pacific"))

case_ranking_by_months

# A tibble: 72 × 3
   month region                avg_measles
   <fct> <chr>                       <dbl>
 1 Jan   Africa                     248.  
 2 Jan   Americas                     9.85
 3 Jan   Eastern Mediterranean      198.  
 4 Jan   Europe                     132.  
 5 Jan   South-East Asia            535.  
 6 Jan   Western Pacific            232.  
 7 Feb   Africa                     314.  
 8 Feb   Americas                    14.3 
 9 Feb   Eastern Mediterranean      220.  
10 Feb   Europe                     132.  
# ℹ 62 more rows
…
